
{
  "mods": 
  [
    
    {
      "name": "base",
      "enabled": true
    },
    
    {
      "name": "aai-signals",
      "enabled": true
    },
    
    {
      "name": "Additional-Turret-updated",
      "enabled": true
    },
    
    {
      "name": "Advanced-Solar",
      "enabled": true
    },
    
    {
      "name": "AdvancedSubstation",
      "enabled": true
    },
    
    {
      "name": "air-filtering",
      "enabled": true
    },
    
    {
      "name": "akimbo-weapons",
      "enabled": true
    },
    
    {
      "name": "AllCircuitsMaker2",
      "enabled": true
    },
    
    {
      "name": "Armored-train",
      "enabled": true
    },
    
    {
      "name": "artillery-equality",
      "enabled": true
    },
    
    {
      "name": "assembler-pipe-passthrough",
      "enabled": true
    },
    
    {
      "name": "AtomicArtillery",
      "enabled": true
    },
    
    {
      "name": "belt-balancer",
      "enabled": true
    },
    
    {
      "name": "BeltLiner",
      "enabled": true
    },
    
    {
      "name": "Better-Power-Armor-Grid",
      "enabled": true
    },
    
    {
      "name": "bigger-artillery",
      "enabled": true
    },
    
    {
      "name": "bobgreenhouse",
      "enabled": true
    },
    
    {
      "name": "boblibrary",
      "enabled": true
    },
    
    {
      "name": "Bottleneck",
      "enabled": true
    },
    
    {
      "name": "bullet-trails",
      "enabled": true
    },
    
    {
      "name": "clock",
      "enabled": true
    },
    
    {
      "name": "Command_and_Conquer_RedAlert_Sounds",
      "enabled": true
    },
    
    {
      "name": "craft-under-mouse",
      "enabled": true
    },
    
    {
      "name": "Crafting_Speed_Increase",
      "enabled": true
    },
    
    {
      "name": "Crafting_Speed_Research",
      "enabled": true
    },
    
    {
      "name": "deadlock-beltboxes-loaders",
      "enabled": true
    },
    
    {
      "name": "Dectorio",
      "enabled": true
    },
    
    {
      "name": "DiscoScience",
      "enabled": true
    },
    
    {
      "name": "Electric Furnaces",
      "enabled": true
    },
    
    {
      "name": "ElectricTrain",
      "enabled": true
    },
    
    {
      "name": "EpicWeaponSounds",
      "enabled": true
    },
    
    {
      "name": "ev-mining-drills",
      "enabled": true
    },
    
    {
      "name": "ev-personal-defence",
      "enabled": true
    },
    
    {
      "name": "ev-refining",
      "enabled": true
    },
    
    {
      "name": "even-distribution",
      "enabled": true
    },
    
    {
      "name": "Factorissimo2",
      "enabled": true
    },
    
    {
      "name": "factoryplanner",
      "enabled": true
    },
    
    {
      "name": "FARL",
      "enabled": true
    },
    
    {
      "name": "Flare Stack",
      "enabled": true
    },
    
    {
      "name": "FlareStack_Speed",
      "enabled": true
    },
    
    {
      "name": "flib",
      "enabled": true
    },
    
    {
      "name": "Flow Control",
      "enabled": true
    },
    
    {
      "name": "FluidMustFlow",
      "enabled": true
    },
    
    {
      "name": "FNEI",
      "enabled": true
    },
    
    {
      "name": "informatron",
      "enabled": true
    },
    
    {
      "name": "KS_Power",
      "enabled": true
    },
    
    {
      "name": "Larger stack Size",
      "enabled": true
    },
    
    {
      "name": "LiquifyScienceandLab",
      "enabled": true
    },
    
    {
      "name": "LogisticTrainNetwork",
      "enabled": true
    },
    
    {
      "name": "miniloader",
      "enabled": true
    },
    
    {
      "name": "Mining_Drones",
      "enabled": true
    },
    
    {
      "name": "mining_drones_overloaded",
      "enabled": true
    },
    
    {
      "name": "More-Exoskeletons",
      "enabled": true
    },
    
    {
      "name": "more-fusion-reactors",
      "enabled": true
    },
    
    {
      "name": "PipeVisualizer",
      "enabled": true
    },
    
    {
      "name": "player-auto-build",
      "enabled": true
    },
    
    {
      "name": "reverse-factory",
      "enabled": true
    },
    
    {
      "name": "robosubstation",
      "enabled": true
    },
    
    {
      "name": "Searchlight",
      "enabled": true
    },
    
    {
      "name": "sonaxaton-research-queue",
      "enabled": true
    },
    
    {
      "name": "Soviet-Tesla-Coils",
      "enabled": true
    },
    
    {
      "name": "SovietRepublicMusic",
      "enabled": true
    },
    
    {
      "name": "Squeak Through",
      "enabled": true
    },
    
    {
      "name": "stdlib",
      "enabled": true
    },
    
    {
      "name": "TheArcFurnace",
      "enabled": true
    },
    
    {
      "name": "ThickerLines",
      "enabled": true
    },
    
    {
      "name": "Train-Speed-Multiplier",
      "enabled": true
    },
    
    {
      "name": "TrainRefuelStation",
      "enabled": true
    },
    
    {
      "name": "TrainSkipFulfilledStation",
      "enabled": true
    },
    
    {
      "name": "Turret_Range_Buff",
      "enabled": true
    },
    
    {
      "name": "UltimateBelts",
      "enabled": true
    },
    
    {
      "name": "Warehousing",
      "enabled": true
    },
    
    {
      "name": "WaterWell",
      "enabled": true
    },
    
    {
      "name": "Wood2OilProcessing",
      "enabled": true
    },
    
    {
      "name": "Wood_Gasification",
      "enabled": true
    }
  ]
}
